<svg width="14" height="17" viewBox="0 0 14 17" fill="#5e6f81"
     xmlns="http://www.w3.org/2000/svg">
    <path fill-rule="evenodd" clip-rule="evenodd"
          d="M12.0555 5.75H13.1389C13.3385 5.75 13.5 5.91772 13.5 6.12502V15.5C13.5 16.3273 12.8522 17 12.0556 17H1.94446C1.1478 17 0.5 16.3273 0.5 15.5V6.12502C0.5 5.91772 0.661518 5.75 0.861122 5.75H1.94446V5.24998C1.94446 2.35512 4.21231 0 7 0C9.78769 0 12.0555 2.35512 12.0555 5.24998V5.75ZM4.11112 5.24998V5.75H9.88888V5.24998C9.88888 3.59581 8.59291 2.25 7 2.25C5.40709 2.25 4.11112 3.59581 4.11112 5.24998ZM7 13C7.9665 13 8.75 12.2165 8.75 11.25C8.75 10.2835 7.9665 9.5 7 9.5C6.0335 9.5 5.25 10.2835 5.25 11.25C5.25 12.2165 6.0335 13 7 13Z"/>
</svg>