<svg width="8" height="11" viewBox="0 0 8 11" fill="#1C76BA"
     xmlns="http://www.w3.org/2000/svg">
    <path d="M1.30849 9.31432L5.43302 5.49508L1.30849 1.67584C0.893914 1.29195 0.893914 0.671812 1.30849 0.287919C1.72307 -0.0959731 2.39277 -0.0959731 2.80735 0.287919L7.68662 4.80604C8.1012 5.18993 8.1012 5.81007 7.68662 6.19396L2.80735 10.7121C2.39277 11.096 1.72307 11.096 1.30849 10.7121C0.904544 10.3282 0.893914 9.69821 1.30849 9.31432Z"/>
</svg>