<svg width="192" height="226" viewBox="0 0 192 226" fill="none" xmlns="http://www.w3.org/2000/svg">
    <path d="M97.241 225.566L97.3134 225.805L97.2409 225.566C96.8366 225.689 96.4181 225.75 96 225.75C95.5821 225.75 95.1644 225.689 94.7594 225.567C38.0518 208.42 0.25 165.976 0.25 107.486V32.2656C0.25 29.8564 2.1871 27.9062 4.57143 27.9062C17.3149 27.9062 27.6786 17.4535 27.6786 4.60938C27.6786 2.2002 29.6157 0.25 32 0.25H160C162.384 0.25 164.321 2.2002 164.321 4.60938C164.321 17.4535 174.685 27.9062 187.429 27.9062C189.813 27.9062 191.75 29.8564 191.75 32.2656V107.486C191.75 167.256 152.722 208.786 97.241 225.566ZM95.925 216.809L96 216.833L96.075 216.809C148.168 200.439 183.107 162.677 183.107 107.486V36.5468V36.3304L182.893 36.2994C169.01 34.2883 157.997 23.1846 156.002 9.18348L155.971 8.96875H155.754H36.2459H36.029L35.9984 9.18348C34.0034 23.1846 22.9896 34.2883 9.10701 36.2994L8.89286 36.3304V36.5468V107.486C8.89286 162.375 44.2466 200.569 95.925 216.809Z" fill="#5E6F81" stroke="white" stroke-width="0.5"/>
    <path d="M52.6253 128.676L52.6268 128.675L52.6351 128.666C52.6406 128.66 52.6482 128.652 52.6578 128.641C52.6617 128.637 52.6659 128.632 52.6704 128.627C52.7017 128.591 52.7479 128.536 52.8052 128.463C52.9198 128.318 53.0781 128.099 53.2488 127.812C53.5903 127.238 53.9801 126.393 54.1697 125.313L54.1698 125.313L54.1698 125.313L54.17 125.311L54.171 125.306L54.1746 125.287C54.1778 125.27 54.1826 125.246 54.1892 125.215C54.2023 125.153 54.2227 125.063 54.2524 124.949C54.3116 124.72 54.4077 124.392 54.5562 123.99C54.8207 123.273 55.2515 122.319 55.9364 121.269C55.7816 121.27 55.5922 121.274 55.3747 121.282C54.742 121.304 53.8734 121.36 52.9293 121.495C51.9842 121.631 50.9694 121.845 50.0417 122.181C49.112 122.518 48.2859 122.971 47.7024 123.575L47.7024 123.575L47.7023 123.576L47.7023 123.576L47.7014 123.576L47.6966 123.582L47.6757 123.604C47.657 123.625 47.6292 123.656 47.5944 123.697C47.5247 123.779 47.4271 123.9 47.3178 124.054C47.0984 124.362 46.8359 124.796 46.6554 125.302C46.4751 125.807 46.3795 126.377 46.4824 126.966C46.5846 127.55 46.886 128.172 47.5305 128.781L52.6253 128.676ZM52.6253 128.676L52.6253 128.677L52.6252 128.677C52.6252 128.677 52.6253 128.677 52.6833 128.733L52.6253 128.676ZM47.532 128.783L47.5322 128.783L47.532 128.783ZM47.532 128.783L47.532 128.783L47.532 128.783ZM129.184 144.353L129.183 144.353C127.027 145.28 124.526 144.293 123.593 142.161C119.203 132.12 108.844 125.646 97.2099 125.646C85.3086 125.646 74.8829 132.114 70.6734 142.152C69.995 143.77 68.4119 144.75 66.7441 144.75C66.1998 144.75 65.6481 144.646 65.1128 144.427C62.9426 143.534 61.9173 141.071 62.8177 138.928L62.8177 138.928C68.3402 125.756 81.8353 117.23 97.2099 117.23C112.255 117.23 125.672 125.711 131.399 138.823L131.628 138.723L131.399 138.823C132.331 140.954 131.342 143.43 129.184 144.353ZM59.2019 97.0069C58.1582 98.5757 57.5108 100.003 57.1195 101.065C56.9078 101.639 56.771 102.107 56.6868 102.432C56.6447 102.595 56.6158 102.722 56.5973 102.81C56.588 102.853 56.5813 102.887 56.5769 102.91L56.5719 102.937L56.5706 102.944L56.5702 102.946L56.5702 102.947L56.5702 102.947C56.2949 104.513 55.7292 105.739 55.2331 106.572C54.9851 106.989 54.7548 107.306 54.5876 107.519C54.504 107.625 54.4363 107.705 54.3901 107.758C54.367 107.784 54.3492 107.804 54.3376 107.816L54.3249 107.83L54.3221 107.833L54.3218 107.833L54.3217 107.833L54.3217 107.833C54.3217 107.833 54.3216 107.833 54.3216 107.833C53.3896 108.799 52.462 109.281 51.6014 109.471C50.739 109.662 49.9264 109.565 49.2208 109.346C48.5142 109.126 47.9199 108.786 47.501 108.5C47.292 108.356 47.128 108.227 47.017 108.135C46.9615 108.089 46.9194 108.052 46.8915 108.027C46.8776 108.014 46.8673 108.005 46.8607 107.998L46.8535 107.992L46.8521 107.99L46.8521 107.99L46.852 107.99L46.8519 107.99L46.8505 107.989C45.9091 107.098 45.4637 106.184 45.3124 105.319C45.1605 104.45 45.3019 103.612 45.5653 102.873C45.8289 102.134 46.2115 101.502 46.5303 101.054C46.6893 100.831 46.8314 100.654 46.9332 100.534C46.984 100.474 47.0247 100.428 47.0523 100.398C47.0661 100.383 47.0766 100.372 47.0835 100.364L47.091 100.356L47.0926 100.355L47.0927 100.355C47.0928 100.354 47.0928 100.354 47.0929 100.354C47.9474 99.4697 49.1512 98.8114 50.4951 98.3249C51.837 97.839 53.3025 97.5301 54.6643 97.3347C56.0253 97.1395 57.2767 97.0586 58.1882 97.0265C58.605 97.0118 58.9503 97.0074 59.2019 97.0069ZM66.1579 86.2156C66.1579 81.2689 70.2125 77.25 75.217 77.25C80.2199 77.25 84.273 81.2674 84.273 86.2156C84.273 91.1668 80.2198 95.1841 75.217 95.1841C70.2125 95.1841 66.1579 91.1667 66.1579 86.2156ZM108.368 86.2156C108.368 81.269 112.427 77.25 117.428 77.25C122.433 77.25 126.487 81.2675 126.487 86.2156C126.487 91.1667 122.433 95.1841 117.428 95.1841C112.428 95.1841 108.368 91.1666 108.368 86.2156Z" fill="#5E6F81" stroke="white" stroke-width="0.5"/>
</svg>