<svg width="20" height="20" viewBox="0 0 20 20" fill="none" xmlns="http://www.w3.org/2000/svg">
    <circle cx="10" cy="10" r="10" fill="#E53935"/>
    <path d="M13.5971 7.20857C13.8196 6.98608 13.8196 6.62535 13.5971 6.40286V6.40286C13.3747 6.18037 13.0139 6.18037 12.7914 6.40286L10 9.19429L7.20857 6.40286C6.98608 6.18037 6.62535 6.18037 6.40286 6.40286V6.40286C6.18037 6.62535 6.18037 6.98608 6.40286 7.20857L9.19429 10L6.40286 12.7914C6.18036 13.0139 6.18037 13.3747 6.40286 13.5971V13.5971C6.62535 13.8196 6.98608 13.8196 7.20857 13.5971L10 10.8057L12.7914 13.5971C13.0139 13.8196 13.3747 13.8196 13.5971 13.5971V13.5971C13.8196 13.3747 13.8196 13.0139 13.5971 12.7914L10.8057 10L13.5971 7.20857Z" fill="white" stroke="white" stroke-width="0.5" stroke-linecap="round" stroke-linejoin="round"/>
</svg>